{
	"additionalNodes": [ {
		"children": [ {
			"children": [ {
				"children": [],
				"id": "Nm6UNtic9tNTmdFljMNjZJrp5iETN0Kw",
				"nodeType": "reference",
				"parameters": [ {
					"name": "behaviourName",
					"value": "nota_uhlik_map.ShowPoints"
				} ],
				"referenceInputs": [ {
					"name": "points",
					"value": "path"
				} ],
				"referenceOutputs": []
			} ],
			"id": "JTbstGoaLVN0HRLarXhFi1uawHwo5smQ",
			"nodeType": "repeat",
			"parameters": []
		}, {
			"children": [],
			"id": "rH5aGc8h8yXlginCNWJzbg2Oao6Ea5yh",
			"nodeType": "failure",
			"parameters": []
		} ],
		"id": "dwrOQjxoA9955m4Ne2aPViXF2jrgvcCS",
		"nodeType": "luaCondition",
		"parameters": [ {
			"name": "expression",
			"value": "debug == true"
		}, {
			"name": "repeat",
			"value": "false"
		} ]
	} ],
	"additionalParameters": {
		"root": {
			"height": 148,
			"width": 216
		}
	},
	"inputs": [ {
		"command": "Variable",
		"name": "unitID"
	}, {
		"command": "Variable",
		"name": "target"
	}, {
		"command": "Variable",
		"name": "debug"
	} ],
	"outputs": [],
	"properties": {
		"3A7FtzRkWpqkUxb6PO29fTQCPRpJJAH6": {
			"height": 94,
			"title": "store",
			"width": 361,
			"x": 612,
			"y": 16
		},
		"IkWZNbboCvZ5INbgtqfXj2hpNz26HMxH": {
			"height": 94,
			"title": "store",
			"width": 316,
			"x": 612,
			"y": -86
		},
		"JDCIt52ZSb6OIft5tWoS3EI0fXAHLPa7": {
			"height": 60,
			"title": "sequence",
			"width": 143,
			"x": 279,
			"y": 31
		},
		"JTbstGoaLVN0HRLarXhFi1uawHwo5smQ": {
			"height": 60,
			"title": "repeat",
			"width": 131,
			"x": 1098,
			"y": 68
		},
		"Nm6UNtic9tNTmdFljMNjZJrp5iETN0Kw": {
			"height": 133,
			"title": "reference",
			"width": 281,
			"x": 1309,
			"y": 42
		},
		"OVLUkBcoCVrOZZzZYAmN10RU6v7gMTuH": {
			"height": 60,
			"title": "sequence",
			"width": 143,
			"x": 762,
			"y": 400
		},
		"dwrOQjxoA9955m4Ne2aPViXF2jrgvcCS": {
			"height": 90,
			"title": "luaCondition",
			"width": 194,
			"x": 795,
			"y": 129
		},
		"htu8hSn6JKqaeTKVMvFbdYVscX7HSwTc": {
			"height": 70,
			"title": "parallel",
			"width": 202,
			"x": 485,
			"y": 255
		},
		"qe8uOlIJuQfN1ZZhWHGKEVNA7UyzgMzv": {
			"height": 112,
			"title": "nota_uhlik_map.move",
			"width": 221,
			"x": 1014,
			"y": 440
		},
		"rH5aGc8h8yXlginCNWJzbg2Oao6Ea5yh": {
			"height": 54,
			"title": "failure",
			"width": 131,
			"x": 1101,
			"y": 166
		},
		"uGAEGv9USPloLqxc8BA7GaLJjfzl3fV7": {
			"height": 112,
			"title": "nota_uhlik_map.moveAlongPath",
			"width": 286,
			"x": 1005,
			"y": 302
		}
	},
	"roles": [ {
		"categories": [],
		"name": "Role 0"
	} ],
	"root": {
		"children": [ {
			"children": [],
			"id": "IkWZNbboCvZ5INbgtqfXj2hpNz26HMxH",
			"nodeType": "luaCommand",
			"parameters": [ {
				"name": "var",
				"value": "unitPosition"
			}, {
				"name": "value",
				"value": "GetUnitsPositions({unitID})[1]"
			}, {
				"name": "scriptName",
				"value": "store"
			} ],
			"scriptName": "store"
		}, {
			"children": [],
			"id": "3A7FtzRkWpqkUxb6PO29fTQCPRpJJAH6",
			"nodeType": "luaCommand",
			"parameters": [ {
				"name": "var",
				"value": "path"
			}, {
				"name": "value",
				"value": "FindPathInGrid(bb.grid, unitPosition, target)"
			}, {
				"name": "scriptName",
				"value": "store"
			} ],
			"scriptName": "store"
		}, {
			"children": [ {
				"children": [ {
					"children": [],
					"id": "uGAEGv9USPloLqxc8BA7GaLJjfzl3fV7",
					"nodeType": "luaCommand",
					"parameters": [ {
						"name": "unitID",
						"value": "unitID"
					}, {
						"name": "path",
						"value": "path"
					}, {
						"name": "treshold",
						"value": "200"
					}, {
						"name": "scriptName",
						"value": "nota_uhlik_map.moveAlongPath"
					} ],
					"scriptName": "nota_uhlik_map.moveAlongPath"
				}, {
					"children": [],
					"id": "qe8uOlIJuQfN1ZZhWHGKEVNA7UyzgMzv",
					"nodeType": "luaCommand",
					"parameters": [ {
						"name": "unitID",
						"value": "unitID"
					}, {
						"name": "point",
						"value": "target"
					}, {
						"name": "treshold",
						"value": "200"
					}, {
						"name": "scriptName",
						"value": "nota_uhlik_map.move"
					} ],
					"scriptName": "nota_uhlik_map.move"
				} ],
				"id": "OVLUkBcoCVrOZZzZYAmN10RU6v7gMTuH",
				"nodeType": "sequence",
				"parameters": []
			} ],
			"id": "htu8hSn6JKqaeTKVMvFbdYVscX7HSwTc",
			"nodeType": "parallel",
			"parameters": [ {
				"name": "mode",
				"value": "any-success"
			} ]
		} ],
		"id": "JDCIt52ZSb6OIft5tWoS3EI0fXAHLPa7",
		"nodeType": "sequence",
		"parameters": []
	}
}